<?xml version="1.0" encoding="utf-8"?>
<!-- Generator: Adobe Illustrator 19.0.0, SVG Export Plug-In . SVG Version: 6.00 Build 0)  -->
<svg version="1.1" id="Layer_1" xmlns="http://www.w3.org/2000/svg" xmlns:xlink="http://www.w3.org/1999/xlink" x="0px" y="0px"
	 viewBox="847 1519.7 16 9.5" style="enable-background:new 847 1519.7 16 9.5;" xml:space="preserve">
<style type="text/css">
	.st0{fill:#D0D2D3;}
</style>
<polygon class="st0" points="861.5,1519.7 855,1526.3 848.4,1519.7 847,1521.2 855,1529.2 863,1521.2 "/>
</svg>
