<?xml version="1.0" encoding="utf-8"?>
<!-- Generator: Adobe Illustrator 19.0.0, SVG Export Plug-In . SVG Version: 6.00 Build 0)  -->
<svg version="1.1" id="Layer_1" xmlns="http://www.w3.org/2000/svg" xmlns:xlink="http://www.w3.org/1999/xlink" x="0px" y="0px"
	 viewBox="0 0 63 64" style="enable-background:new 0 0 63 64;" xml:space="preserve">
<style type="text/css">
	.st0{fill:#6D6E70;}
</style>
<g id="XMLID_1_">
	<path id="XMLID_36_" class="st0" d="M31.5,0C14.1,0,0,14.3,0,32c0,17.7,14.1,32,31.5,32C48.9,64,63,49.7,63,32
		C63,14.3,48.9,0,31.5,0z M39.2,33.1c-0.1,0.5-0.5,0.9-1,0.9H35v13c0,0.6-0.4,1-0.9,1h-6c-0.6,0-1.1-0.4-1.1-1V34h-2.9
		c-0.6,0-1.1-0.4-1.1-1v-4.6c0-0.6,0.5-1.4,1.1-1.4H27v-3.5c0-4.9,2.5-7.5,6.7-7.5c1.4,0,3.3,0.1,4.4,0.1c0.5,0,0.9,0.5,0.9,1V21
		c0,0.6-0.4,1-0.9,1h-1c-1.4,0-2.1,0.4-2.1,2.1V27h3.9c0.3,0,0.6,0.3,0.8,0.6s0.3,0.6,0.2,0.9L39.2,33.1z"/>
</g>
</svg>
