<?xml version="1.0" encoding="utf-8"?>
<!-- Generator: Adobe Illustrator 19.0.0, SVG Export Plug-In . SVG Version: 6.00 Build 0)  -->
<svg version="1.1" id="Layer_1" xmlns="http://www.w3.org/2000/svg" xmlns:xlink="http://www.w3.org/1999/xlink" x="0px" y="0px"
	 viewBox="0 0 63 64" style="enable-background:new 0 0 63 64;" xml:space="preserve">
<style type="text/css">
	.st0{fill:#D0D2D3;}
</style>
<g>
	<g>
		<path class="st0" d="M23.3,17.7l1.5-1.5c0.8-0.8,2.2-0.8,3.1,0L41.7,30c0.8,0.8,0.8,2.2,0,3.1L27.9,46.9c-0.8,0.8-2.2,0.8-3.1,0
			l-1.5-1.5c-0.8-0.8-0.8-2.2,0-3.1L34,31.5L23.3,20.8C22.4,19.9,22.4,18.6,23.3,17.7"/>
	</g>
</g>
</svg>
