<?xml version="1.0" encoding="utf-8"?>
<!-- Generator: Adobe Illustrator 19.0.0, SVG Export Plug-In . SVG Version: 6.00 Build 0)  -->
<svg version="1.1" id="Layer_1" xmlns="http://www.w3.org/2000/svg" xmlns:xlink="http://www.w3.org/1999/xlink" x="0px" y="0px"
	 viewBox="0 0 32 32" style="enable-background:new 0 0 32 32;" xml:space="preserve">
<style type="text/css">
	.st0{fill:#333333;}
</style>
<g>
	<path class="st0" d="M11.3,9.1l0.8-0.8c0.4-0.4,1.1-0.4,1.5,0l6.9,6.9c0.4,0.4,0.4,1.1,0,1.5l-6.9,6.9c-0.4,0.4-1.1,0.4-1.5,0
		l-0.8-0.8c-0.4-0.4-0.4-1.1,0-1.5l5.4-5.4l-5.4-5.4C10.9,10.2,10.9,9.5,11.3,9.1"/>
</g>
</svg>
