<?xml version="1.0" encoding="utf-8"?>
<!-- Generator: Adobe Illustrator 19.1.0, SVG Export Plug-In . SVG Version: 6.00 Build 0)  -->
<svg version="1.1" id="Layer_1" xmlns="http://www.w3.org/2000/svg" xmlns:xlink="http://www.w3.org/1999/xlink" x="0px" y="0px"
	 viewBox="0 0 32 32" style="enable-background:new 0 0 32 32;" xml:space="preserve">
<style type="text/css">
	.st0{clip-path:url(#SVGID_2_);fill:#CB2027;}
</style>
<g>
	<defs>
		<rect id="SVGID_1_" x="7" y="6" width="18" height="21"/>
	</defs>
	<clipPath id="SVGID_2_">
		<use xlink:href="#SVGID_1_"  style="overflow:visible;"/>
	</clipPath>
	<path class="st0" d="M9.4,26.8c-0.5,0.3-1.1,0.3-1.6,0C7.3,26.5,7,26,7,25.4V7.6C7,7,7.3,6.5,7.8,6.2c0.5-0.3,1.1-0.3,1.6,0
		l14.9,8.9c0.5,0.3,0.8,0.8,0.8,1.3c0,0.5-0.3,1.1-0.8,1.3L9.4,26.8z"/>
</g>
</svg>
