<?xml version="1.0" encoding="utf-8"?>
<!-- Generator: Adobe Illustrator 19.0.0, SVG Export Plug-In . SVG Version: 6.00 Build 0)  -->
<svg version="1.1" id="Layer_1" xmlns="http://www.w3.org/2000/svg" xmlns:xlink="http://www.w3.org/1999/xlink" x="0px" y="0px"
	 viewBox="-468 261 40 40" style="enable-background:new -468 261 40 40;" xml:space="preserve">
<style type="text/css">
	.st0{fill:#CB2027;}
</style>
<g>
	<path class="st0" d="M-448,261c-11,0-20,9-20,20s9,20,20,20c11,0,20-9,20-20S-437,261-448,261z M-438,283.5h-7.5v7.5
		c0,1.4-1.1,2.5-2.5,2.5s-2.5-1.1-2.5-2.5v-7.5h-7.5c-1.4,0-2.5-1.1-2.5-2.5s1.1-2.5,2.5-2.5h7.5V271c0-1.4,1.1-2.5,2.5-2.5
		s2.5,1.1,2.5,2.5v7.5h7.5c1.4,0,2.5,1.1,2.5,2.5S-436.6,283.5-438,283.5z"/>
</g>
</svg>
