<?xml version="1.0" encoding="utf-8"?>
<!-- Generator: Adobe Illustrator 17.0.0, SVG Export Plug-In . SVG Version: 6.00 Build 0)  -->
<!DOCTYPE svg PUBLIC "-//W3C//DTD SVG 1.1//EN" "http://www.w3.org/Graphics/SVG/1.1/DTD/svg11.dtd">
<svg version="1.1" id="Layer_1" xmlns="http://www.w3.org/2000/svg" xmlns:xlink="http://www.w3.org/1999/xlink" x="0px" y="0px"
	 width="256px" height="256px" viewBox="0 0 256 256" enable-background="new 0 0 256 256" xml:space="preserve">
<g>
	<g>
		<path fill="#333333" d="M162.682,172.517c-2.203,0.915-4.533,1.377-6.927,1.377c-9.997,0.008-18.133-8.128-18.141-18.133
			c0-7.365,4.398-13.943,11.214-16.766c2.211-0.915,4.541-1.375,6.927-1.375c4.835,0,9.393,1.885,12.82,5.32
			c3.436,3.437,5.321,7.994,5.313,12.821C173.896,163.118,169.498,169.694,162.682,172.517 M181.34,148.34
			c-0.557-1.916-1.304-3.722-2.251-5.431l5.002-7.739c-2.163-2.975-4.78-5.59-7.762-7.761l-7.73,5.01
			c-1.71-0.946-3.515-1.693-5.424-2.25l-1.925-8.98c-1.805-0.285-3.619-0.555-5.496-0.555s-3.69,0.27-5.496,0.555l-1.925,8.98
			c-1.909,0.557-3.714,1.305-5.424,2.25l-7.738-5.01c-2.974,2.171-5.591,4.786-7.762,7.769l5.01,7.732
			c-0.946,1.709-1.694,3.522-2.251,5.431l-8.979,1.924c-0.286,1.798-0.557,3.612-0.557,5.497c0,1.876,0.271,3.689,0.549,5.487
			l8.979,1.924c0.557,1.916,1.304,3.722,2.251,5.425l-5.002,7.738c2.171,2.982,4.78,5.592,7.762,7.763l7.73-5.004
			c1.71,0.94,3.515,1.695,5.432,2.252l1.917,8.978c1.813,0.285,3.619,0.549,5.504,0.549s3.69-0.264,5.496-0.549l1.925-8.978
			c1.909-0.557,3.714-1.313,5.424-2.252l7.738,5.004c2.982-2.163,5.591-4.78,7.762-7.755l-5.01-7.738
			c0.946-1.711,1.694-3.516,2.251-5.425l8.979-1.924c0.286-1.806,0.557-3.619,0.557-5.495c0-1.885-0.27-3.691-0.557-5.497
			L181.34,148.34z M83.875,95.365c3.293-7.961,10.999-13.106,19.636-13.106c2.792,0,5.519,0.548,8.104,1.614
			c5.233,2.171,9.305,6.25,11.484,11.501c2.171,5.256,2.171,11.023,0,16.24c-3.292,7.961-10.999,13.106-19.628,13.106
			c-2.792,0-5.519-0.549-8.104-1.614C84.551,118.628,79.398,106.18,83.875,95.365 M68.542,124.917l10.609-1.947
			c1.423,1.781,3.038,3.412,4.859,4.86l-1.948,10.576c1.821,1.115,3.666,2.219,5.694,3.062c2.036,0.843,4.112,1.361,6.187,1.854
			l6.108-8.844c2.314,0.254,4.605,0.254,6.871-0.008l6.124,8.883c4.191-1.01,8.192-2.664,11.866-4.914l-1.941-10.609
			c1.781-1.425,3.404-3.046,4.859-4.86l10.57,1.94c1.113-1.821,2.219-3.658,3.062-5.693c0.843-2.037,1.36-4.112,1.861-6.188
			l-8.844-6.101c0.254-2.314,0.254-4.604,0-6.879l8.876-6.124c-1.01-4.19-2.672-8.182-4.923-11.866l-10.602,1.949
			c-1.424-1.782-3.046-3.404-4.859-4.86l1.941-10.57c-1.821-1.12-3.658-2.217-5.694-3.062c-2.036-0.843-4.112-1.367-6.187-1.86
			l-6.108,8.844c-2.314-0.254-4.605-0.254-6.871,0l-6.124-8.875c-4.191,1.01-8.192,2.664-11.866,4.914l1.948,10.609
			c-1.789,1.423-3.412,3.039-4.867,4.86l-10.57-1.942c-1.121,1.821-2.219,3.658-3.07,5.687c-0.835,2.035-1.36,4.112-1.853,6.196
			l8.852,6.099c-0.254,2.314-0.254,4.606,0,6.872l-8.884,6.124C64.629,117.236,66.291,121.236,68.542,124.917"/>
		<path fill="none" stroke="#333333" stroke-width="7" stroke-miterlimit="10" d="M7,128c0,66.83,54.17,121,121,121
			s121-54.171,121-121C249,61.178,194.831,7,128,7S7,61.178,7,128"/>
	</g>
</g>
</svg>
