<?xml version="1.0" encoding="utf-8"?>
<!-- Generator: Adobe Illustrator 19.0.0, SVG Export Plug-In . SVG Version: 6.00 Build 0)  -->
<svg version="1.1" id="Layer_1" xmlns="http://www.w3.org/2000/svg" xmlns:xlink="http://www.w3.org/1999/xlink" x="0px" y="0px"
	 viewBox="-478.5 249 64 64" style="enable-background:new -478.5 249 64 64;" xml:space="preserve">
<style type="text/css">
	.st0{fill:#414141;}
</style>
<g>
	<path class="st0" d="M-459,277c1.6,0,2.9,0.7,3.8,1.8l13.2-6.6c0-0.1,0-0.2,0-0.3c0-2.8,2.2-5,5-5s5,2.2,5,5s-2.2,5-5,5
		c-1.2,0-2.3-0.5-3.2-1.2l-12.3,6.2l12.3,6.2c0.9-0.7,2-1.2,3.2-1.2c2.8,0,5,2.2,5,5s-2.2,5-5,5s-5-2.2-5-5c0-0.1,0-0.2,0-0.3
		l-13.2-6.6c-0.9,1.1-2.3,1.8-3.8,1.8c-2.8,0-5-2.2-5-5S-461.8,277-459,277"/>
</g>
</svg>
