<?xml version="1.0" encoding="utf-8"?>
<!-- Generator: Adobe Illustrator 19.0.0, SVG Export Plug-In . SVG Version: 6.00 Build 0)  -->
<svg version="1.1" id="Layer_1" xmlns="http://www.w3.org/2000/svg" xmlns:xlink="http://www.w3.org/1999/xlink" x="0px" y="0px"
	 viewBox="0 0 63 64" style="enable-background:new 0 0 63 64;" xml:space="preserve">
<style type="text/css">
	.st0{fill:#6D6E70;}
</style>
<g id="XMLID_1_">
	<path id="XMLID_61_" class="st0" d="M31.5,0c-17.7,0-32,14.3-32,32c0,17.7,14.3,32,32,32s32-14.3,32-32C63.5,14.3,49.2,0,31.5,0z
		 M47.5,22c-0.8,1.6-1.7,2.4-3.1,3.2c1.2,15-6.7,21.2-19.2,21.2c-2.9,0-5.7-0.7-8.2-1.9c-0.3-0.1-0.4-0.4-0.3-0.7
		c0.1-0.3,0.3-0.5,0.6-0.5c1.9-0.1,4.7-0.8,7.6-3.1c-4.5,0.3-6.5-2.5-7.3-4.1c-0.1-0.2-0.1-0.5,0.1-0.6c0.1-0.2,0.4-0.3,0.6-0.2
		c0.9,0.1,2.3,0.2,3.3-0.1c-4.5-1.2-5.7-4.4-6-6.3c0-0.2,0.1-0.5,0.2-0.6c0.2-0.1,0.4-0.2,0.6,0c0.6,0.3,1.5,0.6,2.7,0.7
		c-1.7-1.2-5.2-5-2.9-9.3c0.1-0.2,0.3-0.3,0.5-0.3c0.2,0,0.4,0.1,0.5,0.3c3,4.2,8.5,6.8,12.8,7.2c-0.1-0.5-0.8-6.6,4.1-8.8
		c3.8-1.7,7.1,0.9,8.3,2.3c-0.1,0,2.6-1,4.1-1.8c0.1,0,0.2,0,0.2,0c0.1,0.1,0.1,0.1,0.1,0.2c-0.7,2-1.5,2.8-3,3.8
		c1.2-0.1,2.3-0.5,3.4-0.9c0.1,0,0.2,0,0.2,0.1C47.5,21.9,47.5,21.9,47.5,22z"/>
</g>
</svg>
