<?xml version="1.0" encoding="utf-8"?>
<!-- Generator: Adobe Illustrator 17.0.0, SVG Export Plug-In . SVG Version: 6.00 Build 0)  -->
<!DOCTYPE svg PUBLIC "-//W3C//DTD SVG 1.1//EN" "http://www.w3.org/Graphics/SVG/1.1/DTD/svg11.dtd">
<svg version="1.1" id="Layer_1" xmlns="http://www.w3.org/2000/svg" xmlns:xlink="http://www.w3.org/1999/xlink" x="0px" y="0px"
	 width="204px" height="48px" viewBox="0 0 204 48" enable-background="new 0 0 204 48" xml:space="preserve">
<g>
	<path fill-rule="evenodd" clip-rule="evenodd" fill="#C83836" d="M63.286,36.666c6.999,0,12.669-5.666,12.669-12.665
		s-5.674-12.673-12.673-12.673h-9.594v25.338H63.286z M63.316,1.472C75.741,1.48,85.813,11.568,85.813,24.001
		c0,12.695-10.452,22.82-23.081,22.521H43.834V1.472C50.197,1.472,56.955,1.468,63.316,1.472"/>
	<path fill-rule="evenodd" clip-rule="evenodd" fill="#C83836" d="M34.152,17.896h10.582C42.073,8.42,33.368,1.471,23.043,1.471
		C10.601,1.471,0.514,11.558,0.514,24s10.087,22.529,22.529,22.529c6.852,0,12.992-3.061,17.124-7.89
		c3.827-4.471,5.72-10.184,5.358-16.049H20.695v8.448h12.889c-2.273,3.399-6.147,5.637-10.541,5.637
		c-7.001,0-12.675-5.676-12.675-12.675C10.368,10.883,27.905,6.547,34.152,17.896"/>
	<path fill-rule="evenodd" clip-rule="evenodd" fill="#C83836" d="M115.043,15.901c-3.884-2.948-8.349-4.993-13.134-5.102
		c-4.128-0.093-8.791,0.816-9.212,3.869c-0.331,2.411,3.681,3.578,5.522,3.948c5.706,1.146,13.095,0.141,19.335,4.5
		c2.877,2.008,4.75,5.086,4.524,10.087c-0.156,3.425-1.774,7.052-4.67,9.379c-3.916,3.148-9.513,3.983-14.36,3.946
		c-7.072-0.055-14.245-3.154-19.747-7.508l-0.107-0.085l4.482-8.246l0.028,0.02c0.746,0.556,1.612,1.144,2.538,1.728
		c5.227,3.296,14.415,7.28,20.129,3.502c3.148-2.079,2.885-6.142-1.548-7.177c-1.637-0.384-3.455-0.469-4.556-0.59
		c-4.855-0.542-9.575-0.735-15.152-3.538c-4.385-2.204-6.419-5.938-6.201-10.133c0.174-3.346,1.772-6.708,4.718-9.078
		c3.906-3.14,9.345-3.934,14.166-3.946c4.32-0.01,12.499,1.62,17.809,6.025L115.043,15.901z"/>
	<path fill-rule="evenodd" clip-rule="evenodd" fill="#C83836" d="M141.708,36.672c6.981-0.016,12.632-5.674,12.632-12.659
		c0-6.983-5.654-12.647-12.632-12.665c-6.979,0.018-12.633,5.682-12.633,12.665C129.076,30.998,134.727,36.656,141.708,36.672
		 M141.708,1.498c12.418,0.01,22.483,10.091,22.483,22.515c0,12.493-10.123,22.495-22.483,22.517
		c-12.36-0.022-22.483-10.024-22.483-22.517C119.226,11.589,129.29,1.508,141.708,1.498"/>
	<polygon fill-rule="evenodd" clip-rule="evenodd" fill="#C83836" points="173.287,46.529 163.481,46.529 163.481,36.695 
		163.481,1.477 173.287,1.477 193.68,29.923 193.68,1.477 203.486,1.477 203.486,36.695 203.486,46.529 193.68,46.529 
		173.287,18.084 173.287,36.695 	"/>
	<path fill-rule="evenodd" clip-rule="evenodd" fill="#C83836" d="M138.399,16.411l11.349,6.553c0.38,0.22,0.596,0.594,0.596,1.033
		s-0.216,0.812-0.596,1.033l-11.349,6.553c-0.38,0.218-0.812,0.218-1.192,0c-0.378-0.218-0.596-0.594-0.596-1.033V17.444
		c0-0.438,0.218-0.814,0.596-1.033C137.586,16.193,138.019,16.193,138.399,16.411"/>
</g>
</svg>
