<?xml version="1.0" encoding="utf-8"?>
<!-- Generator: Adobe Illustrator 19.0.0, SVG Export Plug-In . SVG Version: 6.00 Build 0)  -->
<svg version="1.1" id="Layer_1" xmlns="http://www.w3.org/2000/svg" xmlns:xlink="http://www.w3.org/1999/xlink" x="0px" y="0px"
	 viewBox="0 0 1188.7 717" style="enable-background:new 0 0 1188.7 717;" xml:space="preserve">
<style type="text/css">
	.st0{fill:none;}
	.st1{fill:#F1F1F1;}
	.st2{fill:#DBDCDD;}
</style>
<g id="XMLID_1_">
	<path id="XMLID_21_" class="st0" d="M130.5,83.6c-27.6,110.8,40,223.4,150.9,251.1c110.8,27.6,223.4-40,251.1-150.9
		c16.7-67-1.5-134.7-42.9-183.9H173.4C153.4,23.5,138.4,51.8,130.5,83.6z M228.1,205.9l46-184.4c1.4-5.8,5.9-10.4,11.6-12
		c5.8-1.6,11.9,0,16.1,4.2l130.7,130.5c4.1,4.1,5.8,10.1,4.4,15.7c-1.4,5.6-5.7,10.1-11.2,11.8L249,225.7
		c-5.7,1.7-11.9,0.3-16.2-3.8C228.4,217.8,226.7,211.7,228.1,205.9z"/>
	<path id="XMLID_32_" class="st0" d="M857.3,592.7c114.2,0,207.1-92.9,207.1-207.1c0-114.2-92.9-207.1-207.1-207.1
		c-114.2,0-207.1,92.9-207.1,207.1C650.2,499.8,743.1,592.7,857.3,592.7z M774,290.6c0-6,3.4-11.5,8.6-14.4
		c5.2-2.9,11.7-2.9,16.8,0.2l158.4,95c5,3,8.1,8.4,8.1,14.2c0,5.8-3,11.2-8,14.2l-158.3,95c-5.1,3.1-11.7,3.1-16.9,0.2
		c-5.2-2.9-8.6-8.4-8.6-14.4V290.6z"/>
	<path id="XMLID_33_" class="st1" d="M782.6,495c5.2,2.9,11.7,2.9,16.8-0.2l158.4-95c5-3,8.1-8.4,8.1-14.2c0-5.8-3-11.2-8-14.2
		l-158.3-95c-5.1-3.1-11.7-3.1-16.9-0.2c-5.2,2.9-8.6,8.5-8.6,14.4v190C774,486.6,777.4,492.1,782.6,495z"/>
	<path id="XMLID_36_" class="st1" d="M653,213.9c-19.6,78.7-65.9,143.7-126.7,187.9c8.4,175.5,153.4,315.2,331,315.2
		c183,0,331.4-148.4,331.4-331.4c0-183-148.4-331.4-331.4-331.4c-72.8,0-140.1,23.5-194.8,63.3C664.1,149.2,661.1,181.6,653,213.9z
		 M857.3,178.5c114.2,0,207.1,92.9,207.1,207.1c0,114.2-92.9,207.1-207.1,207.1c-114.2,0-207.1-92.9-207.1-207.1
		C650.2,271.4,743.1,178.5,857.3,178.5z"/>
	<path id="XMLID_38_" class="st2" d="M249,225.7l176.6-53.9c5.6-1.7,9.8-6.2,11.2-11.8c1.4-5.6-0.2-11.6-4.4-15.7L301.9,13.8
		c-4.2-4.2-10.4-5.8-16.1-4.2c-5.8,1.6-10.2,6.2-11.6,12l-46,184.4c-1.4,5.8,0.3,11.9,4.7,16C237.1,226,243.3,227.5,249,225.7z"/>
	<path id="XMLID_23_" class="st2" d="M662.5,117.5c-2-41.1-11.6-80.8-27.9-117.5H489.5c41.5,49.1,59.6,116.8,42.9,183.9
		c-27.6,110.8-140.3,178.5-251.1,150.9C170.5,307.1,102.9,194.5,130.5,83.6c7.9-31.9,22.9-60.1,42.9-83.6H28.2
		C20.7,17,14.6,34.9,9.9,53.6C-34.4,231.1,73.7,411,251.3,455.3c98.9,24.7,198.5,2,275-53.5c60.8-44.2,107.1-109.2,126.7-187.9
		C661.1,181.6,664.1,149.2,662.5,117.5z"/>
</g>
</svg>
